('/nfs/2018/m/mray/Documents/42/HackHighSchool/final_project/pvnp/final/build/PvNP/out00-PYZ.pyz',
 [('posixpath',
   '/nfs/2018/m/mray/.brew/Cellar/python/3.6.4_4/Frameworks/Python.framework/Versions/3.6/lib/python3.6/posixpath.py',
   'PYMODULE'),
  ('_strptime',
   '/nfs/2018/m/mray/.brew/Cellar/python/3.6.4_4/Frameworks/Python.framework/Versions/3.6/lib/python3.6/_strptime.py',
   'PYMODULE'),
  ('datetime',
   '/nfs/2018/m/mray/.brew/Cellar/python/3.6.4_4/Frameworks/Python.framework/Versions/3.6/lib/python3.6/datetime.py',
   'PYMODULE'),
  ('stringprep',
   '/nfs/2018/m/mray/.brew/Cellar/python/3.6.4_4/Frameworks/Python.framework/Versions/3.6/lib/python3.6/stringprep.py',
   'PYMODULE'),
  ('stat',
   '/nfs/2018/m/mray/.brew/Cellar/python/3.6.4_4/Frameworks/Python.framework/Versions/3.6/lib/python3.6/stat.py',
   'PYMODULE'),
  ('genericpath',
   '/nfs/2018/m/mray/.brew/Cellar/python/3.6.4_4/Frameworks/Python.framework/Versions/3.6/lib/python3.6/genericpath.py',
   'PYMODULE'),
  ('ntpath',
   '/nfs/2018/m/mray/.brew/Cellar/python/3.6.4_4/Frameworks/Python.framework/Versions/3.6/lib/python3.6/ntpath.py',
   'PYMODULE'),
  ('fnmatch',
   '/nfs/2018/m/mray/.brew/Cellar/python/3.6.4_4/Frameworks/Python.framework/Versions/3.6/lib/python3.6/fnmatch.py',
   'PYMODULE'),
  ('_compat_pickle',
   '/nfs/2018/m/mray/.brew/Cellar/python/3.6.4_4/Frameworks/Python.framework/Versions/3.6/lib/python3.6/_compat_pickle.py',
   'PYMODULE'),
  ('__future__',
   '/nfs/2018/m/mray/.brew/Cellar/python/3.6.4_4/Frameworks/Python.framework/Versions/3.6/lib/python3.6/__future__.py',
   'PYMODULE'),
  ('difflib',
   '/nfs/2018/m/mray/.brew/Cellar/python/3.6.4_4/Frameworks/Python.framework/Versions/3.6/lib/python3.6/difflib.py',
   'PYMODULE'),
  ('ast',
   '/nfs/2018/m/mray/.brew/Cellar/python/3.6.4_4/Frameworks/Python.framework/Versions/3.6/lib/python3.6/ast.py',
   'PYMODULE'),
  ('inspect',
   '/nfs/2018/m/mray/.brew/Cellar/python/3.6.4_4/Frameworks/Python.framework/Versions/3.6/lib/python3.6/inspect.py',
   'PYMODULE'),
  ('cmd',
   '/nfs/2018/m/mray/.brew/Cellar/python/3.6.4_4/Frameworks/Python.framework/Versions/3.6/lib/python3.6/cmd.py',
   'PYMODULE'),
  ('bdb',
   '/nfs/2018/m/mray/.brew/Cellar/python/3.6.4_4/Frameworks/Python.framework/Versions/3.6/lib/python3.6/bdb.py',
   'PYMODULE'),
  ('opcode',
   '/nfs/2018/m/mray/.brew/Cellar/python/3.6.4_4/Frameworks/Python.framework/Versions/3.6/lib/python3.6/opcode.py',
   'PYMODULE'),
  ('dis',
   '/nfs/2018/m/mray/.brew/Cellar/python/3.6.4_4/Frameworks/Python.framework/Versions/3.6/lib/python3.6/dis.py',
   'PYMODULE'),
  ('codeop',
   '/nfs/2018/m/mray/.brew/Cellar/python/3.6.4_4/Frameworks/Python.framework/Versions/3.6/lib/python3.6/codeop.py',
   'PYMODULE'),
  ('code',
   '/nfs/2018/m/mray/.brew/Cellar/python/3.6.4_4/Frameworks/Python.framework/Versions/3.6/lib/python3.6/code.py',
   'PYMODULE'),
  ('glob',
   '/nfs/2018/m/mray/.brew/Cellar/python/3.6.4_4/Frameworks/Python.framework/Versions/3.6/lib/python3.6/glob.py',
   'PYMODULE'),
  ('shlex',
   '/nfs/2018/m/mray/.brew/Cellar/python/3.6.4_4/Frameworks/Python.framework/Versions/3.6/lib/python3.6/shlex.py',
   'PYMODULE'),
  ('importlib._bootstrap',
   '/nfs/2018/m/mray/.brew/Cellar/python/3.6.4_4/Frameworks/Python.framework/Versions/3.6/lib/python3.6/importlib/_bootstrap.py',
   'PYMODULE'),
  ('importlib._bootstrap_external',
   '/nfs/2018/m/mray/.brew/Cellar/python/3.6.4_4/Frameworks/Python.framework/Versions/3.6/lib/python3.6/importlib/_bootstrap_external.py',
   'PYMODULE'),
  ('importlib.machinery',
   '/nfs/2018/m/mray/.brew/Cellar/python/3.6.4_4/Frameworks/Python.framework/Versions/3.6/lib/python3.6/importlib/machinery.py',
   'PYMODULE'),
  ('importlib.util',
   '/nfs/2018/m/mray/.brew/Cellar/python/3.6.4_4/Frameworks/Python.framework/Versions/3.6/lib/python3.6/importlib/util.py',
   'PYMODULE'),
  ('importlib.abc',
   '/nfs/2018/m/mray/.brew/Cellar/python/3.6.4_4/Frameworks/Python.framework/Versions/3.6/lib/python3.6/importlib/abc.py',
   'PYMODULE'),
  ('importlib',
   '/nfs/2018/m/mray/.brew/Cellar/python/3.6.4_4/Frameworks/Python.framework/Versions/3.6/lib/python3.6/importlib/__init__.py',
   'PYMODULE'),
  ('pkgutil',
   '/nfs/2018/m/mray/.brew/Cellar/python/3.6.4_4/Frameworks/Python.framework/Versions/3.6/lib/python3.6/pkgutil.py',
   'PYMODULE'),
  ('xml',
   '/nfs/2018/m/mray/.brew/Cellar/python/3.6.4_4/Frameworks/Python.framework/Versions/3.6/lib/python3.6/xml/__init__.py',
   'PYMODULE'),
  ('xml.sax.expatreader',
   '/nfs/2018/m/mray/.brew/Cellar/python/3.6.4_4/Frameworks/Python.framework/Versions/3.6/lib/python3.6/xml/sax/expatreader.py',
   'PYMODULE'),
  ('xml.sax.saxutils',
   '/nfs/2018/m/mray/.brew/Cellar/python/3.6.4_4/Frameworks/Python.framework/Versions/3.6/lib/python3.6/xml/sax/saxutils.py',
   'PYMODULE'),
  ('urllib.request',
   '/nfs/2018/m/mray/.brew/Cellar/python/3.6.4_4/Frameworks/Python.framework/Versions/3.6/lib/python3.6/urllib/request.py',
   'PYMODULE'),
  ('getpass',
   '/nfs/2018/m/mray/.brew/Cellar/python/3.6.4_4/Frameworks/Python.framework/Versions/3.6/lib/python3.6/getpass.py',
   'PYMODULE'),
  ('nturl2path',
   '/nfs/2018/m/mray/.brew/Cellar/python/3.6.4_4/Frameworks/Python.framework/Versions/3.6/lib/python3.6/nturl2path.py',
   'PYMODULE'),
  ('ftplib',
   '/nfs/2018/m/mray/.brew/Cellar/python/3.6.4_4/Frameworks/Python.framework/Versions/3.6/lib/python3.6/ftplib.py',
   'PYMODULE'),
  ('netrc',
   '/nfs/2018/m/mray/.brew/Cellar/python/3.6.4_4/Frameworks/Python.framework/Versions/3.6/lib/python3.6/netrc.py',
   'PYMODULE'),
  ('http.cookiejar',
   '/nfs/2018/m/mray/.brew/Cellar/python/3.6.4_4/Frameworks/Python.framework/Versions/3.6/lib/python3.6/http/cookiejar.py',
   'PYMODULE'),
  ('urllib.response',
   '/nfs/2018/m/mray/.brew/Cellar/python/3.6.4_4/Frameworks/Python.framework/Versions/3.6/lib/python3.6/urllib/response.py',
   'PYMODULE'),
  ('urllib.error',
   '/nfs/2018/m/mray/.brew/Cellar/python/3.6.4_4/Frameworks/Python.framework/Versions/3.6/lib/python3.6/urllib/error.py',
   'PYMODULE'),
  ('xml.sax',
   '/nfs/2018/m/mray/.brew/Cellar/python/3.6.4_4/Frameworks/Python.framework/Versions/3.6/lib/python3.6/xml/sax/__init__.py',
   'PYMODULE'),
  ('xml.sax.handler',
   '/nfs/2018/m/mray/.brew/Cellar/python/3.6.4_4/Frameworks/Python.framework/Versions/3.6/lib/python3.6/xml/sax/handler.py',
   'PYMODULE'),
  ('xml.sax._exceptions',
   '/nfs/2018/m/mray/.brew/Cellar/python/3.6.4_4/Frameworks/Python.framework/Versions/3.6/lib/python3.6/xml/sax/_exceptions.py',
   'PYMODULE'),
  ('xml.sax.xmlreader',
   '/nfs/2018/m/mray/.brew/Cellar/python/3.6.4_4/Frameworks/Python.framework/Versions/3.6/lib/python3.6/xml/sax/xmlreader.py',
   'PYMODULE'),
  ('xml.parsers',
   '/nfs/2018/m/mray/.brew/Cellar/python/3.6.4_4/Frameworks/Python.framework/Versions/3.6/lib/python3.6/xml/parsers/__init__.py',
   'PYMODULE'),
  ('xml.parsers.expat',
   '/nfs/2018/m/mray/.brew/Cellar/python/3.6.4_4/Frameworks/Python.framework/Versions/3.6/lib/python3.6/xml/parsers/expat.py',
   'PYMODULE'),
  ('plistlib',
   '/nfs/2018/m/mray/.brew/Cellar/python/3.6.4_4/Frameworks/Python.framework/Versions/3.6/lib/python3.6/plistlib.py',
   'PYMODULE'),
  ('platform',
   '/nfs/2018/m/mray/.brew/Cellar/python/3.6.4_4/Frameworks/Python.framework/Versions/3.6/lib/python3.6/platform.py',
   'PYMODULE'),
  ('token',
   '/nfs/2018/m/mray/.brew/Cellar/python/3.6.4_4/Frameworks/Python.framework/Versions/3.6/lib/python3.6/token.py',
   'PYMODULE'),
  ('tokenize',
   '/nfs/2018/m/mray/.brew/Cellar/python/3.6.4_4/Frameworks/Python.framework/Versions/3.6/lib/python3.6/tokenize.py',
   'PYMODULE'),
  ('urllib.parse',
   '/nfs/2018/m/mray/.brew/Cellar/python/3.6.4_4/Frameworks/Python.framework/Versions/3.6/lib/python3.6/urllib/parse.py',
   'PYMODULE'),
  ('tempfile',
   '/nfs/2018/m/mray/.brew/Cellar/python/3.6.4_4/Frameworks/Python.framework/Versions/3.6/lib/python3.6/tempfile.py',
   'PYMODULE'),
  ('tty',
   '/nfs/2018/m/mray/.brew/Cellar/python/3.6.4_4/Frameworks/Python.framework/Versions/3.6/lib/python3.6/tty.py',
   'PYMODULE'),
  ('pydoc_data',
   '/nfs/2018/m/mray/.brew/Cellar/python/3.6.4_4/Frameworks/Python.framework/Versions/3.6/lib/python3.6/pydoc_data/__init__.py',
   'PYMODULE'),
  ('pydoc_data.topics',
   '/nfs/2018/m/mray/.brew/Cellar/python/3.6.4_4/Frameworks/Python.framework/Versions/3.6/lib/python3.6/pydoc_data/topics.py',
   'PYMODULE'),
  ('html.entities',
   '/nfs/2018/m/mray/.brew/Cellar/python/3.6.4_4/Frameworks/Python.framework/Versions/3.6/lib/python3.6/html/entities.py',
   'PYMODULE'),
  ('html',
   '/nfs/2018/m/mray/.brew/Cellar/python/3.6.4_4/Frameworks/Python.framework/Versions/3.6/lib/python3.6/html/__init__.py',
   'PYMODULE'),
  ('ipaddress',
   '/nfs/2018/m/mray/.brew/Cellar/python/3.6.4_4/Frameworks/Python.framework/Versions/3.6/lib/python3.6/ipaddress.py',
   'PYMODULE'),
  ('ssl',
   '/nfs/2018/m/mray/.brew/Cellar/python/3.6.4_4/Frameworks/Python.framework/Versions/3.6/lib/python3.6/ssl.py',
   'PYMODULE'),
  ('http.client',
   '/nfs/2018/m/mray/.brew/Cellar/python/3.6.4_4/Frameworks/Python.framework/Versions/3.6/lib/python3.6/http/client.py',
   'PYMODULE'),
  ('mimetypes',
   '/nfs/2018/m/mray/.brew/Cellar/python/3.6.4_4/Frameworks/Python.framework/Versions/3.6/lib/python3.6/mimetypes.py',
   'PYMODULE'),
  ('socketserver',
   '/nfs/2018/m/mray/.brew/Cellar/python/3.6.4_4/Frameworks/Python.framework/Versions/3.6/lib/python3.6/socketserver.py',
   'PYMODULE'),
  ('http',
   '/nfs/2018/m/mray/.brew/Cellar/python/3.6.4_4/Frameworks/Python.framework/Versions/3.6/lib/python3.6/http/__init__.py',
   'PYMODULE'),
  ('http.server',
   '/nfs/2018/m/mray/.brew/Cellar/python/3.6.4_4/Frameworks/Python.framework/Versions/3.6/lib/python3.6/http/server.py',
   'PYMODULE'),
  ('optparse',
   '/nfs/2018/m/mray/.brew/Cellar/python/3.6.4_4/Frameworks/Python.framework/Versions/3.6/lib/python3.6/optparse.py',
   'PYMODULE'),
  ('uu',
   '/nfs/2018/m/mray/.brew/Cellar/python/3.6.4_4/Frameworks/Python.framework/Versions/3.6/lib/python3.6/uu.py',
   'PYMODULE'),
  ('email.feedparser',
   '/nfs/2018/m/mray/.brew/Cellar/python/3.6.4_4/Frameworks/Python.framework/Versions/3.6/lib/python3.6/email/feedparser.py',
   'PYMODULE'),
  ('email.parser',
   '/nfs/2018/m/mray/.brew/Cellar/python/3.6.4_4/Frameworks/Python.framework/Versions/3.6/lib/python3.6/email/parser.py',
   'PYMODULE'),
  ('email',
   '/nfs/2018/m/mray/.brew/Cellar/python/3.6.4_4/Frameworks/Python.framework/Versions/3.6/lib/python3.6/email/__init__.py',
   'PYMODULE'),
  ('calendar',
   '/nfs/2018/m/mray/.brew/Cellar/python/3.6.4_4/Frameworks/Python.framework/Versions/3.6/lib/python3.6/calendar.py',
   'PYMODULE'),
  ('email._parseaddr',
   '/nfs/2018/m/mray/.brew/Cellar/python/3.6.4_4/Frameworks/Python.framework/Versions/3.6/lib/python3.6/email/_parseaddr.py',
   'PYMODULE'),
  ('email.utils',
   '/nfs/2018/m/mray/.brew/Cellar/python/3.6.4_4/Frameworks/Python.framework/Versions/3.6/lib/python3.6/email/utils.py',
   'PYMODULE'),
  ('email.errors',
   '/nfs/2018/m/mray/.brew/Cellar/python/3.6.4_4/Frameworks/Python.framework/Versions/3.6/lib/python3.6/email/errors.py',
   'PYMODULE'),
  ('email.header',
   '/nfs/2018/m/mray/.brew/Cellar/python/3.6.4_4/Frameworks/Python.framework/Versions/3.6/lib/python3.6/email/header.py',
   'PYMODULE'),
  ('email._policybase',
   '/nfs/2018/m/mray/.brew/Cellar/python/3.6.4_4/Frameworks/Python.framework/Versions/3.6/lib/python3.6/email/_policybase.py',
   'PYMODULE'),
  ('email.base64mime',
   '/nfs/2018/m/mray/.brew/Cellar/python/3.6.4_4/Frameworks/Python.framework/Versions/3.6/lib/python3.6/email/base64mime.py',
   'PYMODULE'),
  ('email.encoders',
   '/nfs/2018/m/mray/.brew/Cellar/python/3.6.4_4/Frameworks/Python.framework/Versions/3.6/lib/python3.6/email/encoders.py',
   'PYMODULE'),
  ('email.charset',
   '/nfs/2018/m/mray/.brew/Cellar/python/3.6.4_4/Frameworks/Python.framework/Versions/3.6/lib/python3.6/email/charset.py',
   'PYMODULE'),
  ('base64',
   '/nfs/2018/m/mray/.brew/Cellar/python/3.6.4_4/Frameworks/Python.framework/Versions/3.6/lib/python3.6/base64.py',
   'PYMODULE'),
  ('email._encoded_words',
   '/nfs/2018/m/mray/.brew/Cellar/python/3.6.4_4/Frameworks/Python.framework/Versions/3.6/lib/python3.6/email/_encoded_words.py',
   'PYMODULE'),
  ('hashlib',
   '/nfs/2018/m/mray/.brew/Cellar/python/3.6.4_4/Frameworks/Python.framework/Versions/3.6/lib/python3.6/hashlib.py',
   'PYMODULE'),
  ('bisect',
   '/nfs/2018/m/mray/.brew/Cellar/python/3.6.4_4/Frameworks/Python.framework/Versions/3.6/lib/python3.6/bisect.py',
   'PYMODULE'),
  ('random',
   '/nfs/2018/m/mray/.brew/Cellar/python/3.6.4_4/Frameworks/Python.framework/Versions/3.6/lib/python3.6/random.py',
   'PYMODULE'),
  ('email.generator',
   '/nfs/2018/m/mray/.brew/Cellar/python/3.6.4_4/Frameworks/Python.framework/Versions/3.6/lib/python3.6/email/generator.py',
   'PYMODULE'),
  ('email.iterators',
   '/nfs/2018/m/mray/.brew/Cellar/python/3.6.4_4/Frameworks/Python.framework/Versions/3.6/lib/python3.6/email/iterators.py',
   'PYMODULE'),
  ('urllib',
   '/nfs/2018/m/mray/.brew/Cellar/python/3.6.4_4/Frameworks/Python.framework/Versions/3.6/lib/python3.6/urllib/__init__.py',
   'PYMODULE'),
  ('email._header_value_parser',
   '/nfs/2018/m/mray/.brew/Cellar/python/3.6.4_4/Frameworks/Python.framework/Versions/3.6/lib/python3.6/email/_header_value_parser.py',
   'PYMODULE'),
  ('email.headerregistry',
   '/nfs/2018/m/mray/.brew/Cellar/python/3.6.4_4/Frameworks/Python.framework/Versions/3.6/lib/python3.6/email/headerregistry.py',
   'PYMODULE'),
  ('email.quoprimime',
   '/nfs/2018/m/mray/.brew/Cellar/python/3.6.4_4/Frameworks/Python.framework/Versions/3.6/lib/python3.6/email/quoprimime.py',
   'PYMODULE'),
  ('email.contentmanager',
   '/nfs/2018/m/mray/.brew/Cellar/python/3.6.4_4/Frameworks/Python.framework/Versions/3.6/lib/python3.6/email/contentmanager.py',
   'PYMODULE'),
  ('email.policy',
   '/nfs/2018/m/mray/.brew/Cellar/python/3.6.4_4/Frameworks/Python.framework/Versions/3.6/lib/python3.6/email/policy.py',
   'PYMODULE'),
  ('email.message',
   '/nfs/2018/m/mray/.brew/Cellar/python/3.6.4_4/Frameworks/Python.framework/Versions/3.6/lib/python3.6/email/message.py',
   'PYMODULE'),
  ('bz2',
   '/nfs/2018/m/mray/.brew/Cellar/python/3.6.4_4/Frameworks/Python.framework/Versions/3.6/lib/python3.6/bz2.py',
   'PYMODULE'),
  ('lzma',
   '/nfs/2018/m/mray/.brew/Cellar/python/3.6.4_4/Frameworks/Python.framework/Versions/3.6/lib/python3.6/lzma.py',
   'PYMODULE'),
  ('_compression',
   '/nfs/2018/m/mray/.brew/Cellar/python/3.6.4_4/Frameworks/Python.framework/Versions/3.6/lib/python3.6/_compression.py',
   'PYMODULE'),
  ('gzip',
   '/nfs/2018/m/mray/.brew/Cellar/python/3.6.4_4/Frameworks/Python.framework/Versions/3.6/lib/python3.6/gzip.py',
   'PYMODULE'),
  ('tarfile',
   '/nfs/2018/m/mray/.brew/Cellar/python/3.6.4_4/Frameworks/Python.framework/Versions/3.6/lib/python3.6/tarfile.py',
   'PYMODULE'),
  ('py_compile',
   '/nfs/2018/m/mray/.brew/Cellar/python/3.6.4_4/Frameworks/Python.framework/Versions/3.6/lib/python3.6/py_compile.py',
   'PYMODULE'),
  ('zipfile',
   '/nfs/2018/m/mray/.brew/Cellar/python/3.6.4_4/Frameworks/Python.framework/Versions/3.6/lib/python3.6/zipfile.py',
   'PYMODULE'),
  ('shutil',
   '/nfs/2018/m/mray/.brew/Cellar/python/3.6.4_4/Frameworks/Python.framework/Versions/3.6/lib/python3.6/shutil.py',
   'PYMODULE'),
  ('socket',
   '/nfs/2018/m/mray/.brew/Cellar/python/3.6.4_4/Frameworks/Python.framework/Versions/3.6/lib/python3.6/socket.py',
   'PYMODULE'),
  ('webbrowser',
   '/nfs/2018/m/mray/.brew/Cellar/python/3.6.4_4/Frameworks/Python.framework/Versions/3.6/lib/python3.6/webbrowser.py',
   'PYMODULE'),
  ('pydoc',
   '/nfs/2018/m/mray/.brew/Cellar/python/3.6.4_4/Frameworks/Python.framework/Versions/3.6/lib/python3.6/pydoc.py',
   'PYMODULE'),
  ('pdb',
   '/nfs/2018/m/mray/.brew/Cellar/python/3.6.4_4/Frameworks/Python.framework/Versions/3.6/lib/python3.6/pdb.py',
   'PYMODULE'),
  ('unittest.util',
   '/nfs/2018/m/mray/.brew/Cellar/python/3.6.4_4/Frameworks/Python.framework/Versions/3.6/lib/python3.6/unittest/util.py',
   'PYMODULE'),
  ('unittest.result',
   '/nfs/2018/m/mray/.brew/Cellar/python/3.6.4_4/Frameworks/Python.framework/Versions/3.6/lib/python3.6/unittest/result.py',
   'PYMODULE'),
  ('string',
   '/nfs/2018/m/mray/.brew/Cellar/python/3.6.4_4/Frameworks/Python.framework/Versions/3.6/lib/python3.6/string.py',
   'PYMODULE'),
  ('logging',
   '/nfs/2018/m/mray/.brew/Cellar/python/3.6.4_4/Frameworks/Python.framework/Versions/3.6/lib/python3.6/logging/__init__.py',
   'PYMODULE'),
  ('unittest.case',
   '/nfs/2018/m/mray/.brew/Cellar/python/3.6.4_4/Frameworks/Python.framework/Versions/3.6/lib/python3.6/unittest/case.py',
   'PYMODULE'),
  ('unittest.suite',
   '/nfs/2018/m/mray/.brew/Cellar/python/3.6.4_4/Frameworks/Python.framework/Versions/3.6/lib/python3.6/unittest/suite.py',
   'PYMODULE'),
  ('unittest.loader',
   '/nfs/2018/m/mray/.brew/Cellar/python/3.6.4_4/Frameworks/Python.framework/Versions/3.6/lib/python3.6/unittest/loader.py',
   'PYMODULE'),
  ('unittest.runner',
   '/nfs/2018/m/mray/.brew/Cellar/python/3.6.4_4/Frameworks/Python.framework/Versions/3.6/lib/python3.6/unittest/runner.py',
   'PYMODULE'),
  ('unittest.main',
   '/nfs/2018/m/mray/.brew/Cellar/python/3.6.4_4/Frameworks/Python.framework/Versions/3.6/lib/python3.6/unittest/main.py',
   'PYMODULE'),
  ('unittest.signals',
   '/nfs/2018/m/mray/.brew/Cellar/python/3.6.4_4/Frameworks/Python.framework/Versions/3.6/lib/python3.6/unittest/signals.py',
   'PYMODULE'),
  ('unittest',
   '/nfs/2018/m/mray/.brew/Cellar/python/3.6.4_4/Frameworks/Python.framework/Versions/3.6/lib/python3.6/unittest/__init__.py',
   'PYMODULE'),
  ('doctest',
   '/nfs/2018/m/mray/.brew/Cellar/python/3.6.4_4/Frameworks/Python.framework/Versions/3.6/lib/python3.6/doctest.py',
   'PYMODULE'),
  ('textwrap',
   '/nfs/2018/m/mray/.brew/Cellar/python/3.6.4_4/Frameworks/Python.framework/Versions/3.6/lib/python3.6/textwrap.py',
   'PYMODULE'),
  ('argparse',
   '/nfs/2018/m/mray/.brew/Cellar/python/3.6.4_4/Frameworks/Python.framework/Versions/3.6/lib/python3.6/argparse.py',
   'PYMODULE'),
  ('pprint',
   '/nfs/2018/m/mray/.brew/Cellar/python/3.6.4_4/Frameworks/Python.framework/Versions/3.6/lib/python3.6/pprint.py',
   'PYMODULE'),
  ('pickle',
   '/nfs/2018/m/mray/.brew/Cellar/python/3.6.4_4/Frameworks/Python.framework/Versions/3.6/lib/python3.6/pickle.py',
   'PYMODULE'),
  ('tracemalloc',
   '/nfs/2018/m/mray/.brew/Cellar/python/3.6.4_4/Frameworks/Python.framework/Versions/3.6/lib/python3.6/tracemalloc.py',
   'PYMODULE'),
  ('warnings',
   '/nfs/2018/m/mray/.brew/Cellar/python/3.6.4_4/Frameworks/Python.framework/Versions/3.6/lib/python3.6/warnings.py',
   'PYMODULE'),
  ('enum',
   '/nfs/2018/m/mray/.brew/Cellar/python/3.6.4_4/Frameworks/Python.framework/Versions/3.6/lib/python3.6/enum.py',
   'PYMODULE'),
  ('signal',
   '/nfs/2018/m/mray/.brew/Cellar/python/3.6.4_4/Frameworks/Python.framework/Versions/3.6/lib/python3.6/signal.py',
   'PYMODULE'),
  ('contextlib',
   '/nfs/2018/m/mray/.brew/Cellar/python/3.6.4_4/Frameworks/Python.framework/Versions/3.6/lib/python3.6/contextlib.py',
   'PYMODULE'),
  ('_threading_local',
   '/nfs/2018/m/mray/.brew/Cellar/python/3.6.4_4/Frameworks/Python.framework/Versions/3.6/lib/python3.6/_threading_local.py',
   'PYMODULE'),
  ('threading',
   '/nfs/2018/m/mray/.brew/Cellar/python/3.6.4_4/Frameworks/Python.framework/Versions/3.6/lib/python3.6/threading.py',
   'PYMODULE'),
  ('selectors',
   '/nfs/2018/m/mray/.brew/Cellar/python/3.6.4_4/Frameworks/Python.framework/Versions/3.6/lib/python3.6/selectors.py',
   'PYMODULE'),
  ('_dummy_thread',
   '/nfs/2018/m/mray/.brew/Cellar/python/3.6.4_4/Frameworks/Python.framework/Versions/3.6/lib/python3.6/_dummy_thread.py',
   'PYMODULE'),
  ('dummy_threading',
   '/nfs/2018/m/mray/.brew/Cellar/python/3.6.4_4/Frameworks/Python.framework/Versions/3.6/lib/python3.6/dummy_threading.py',
   'PYMODULE'),
  ('subprocess',
   '/nfs/2018/m/mray/.brew/Cellar/python/3.6.4_4/Frameworks/Python.framework/Versions/3.6/lib/python3.6/subprocess.py',
   'PYMODULE'),
  ('os',
   '/nfs/2018/m/mray/.brew/Cellar/python/3.6.4_4/Frameworks/Python.framework/Versions/3.6/lib/python3.6/os.py',
   'PYMODULE'),
  ('copy',
   '/nfs/2018/m/mray/.brew/Cellar/python/3.6.4_4/Frameworks/Python.framework/Versions/3.6/lib/python3.6/copy.py',
   'PYMODULE'),
  ('struct',
   '/nfs/2018/m/mray/.brew/Cellar/python/3.6.4_4/Frameworks/Python.framework/Versions/3.6/lib/python3.6/struct.py',
   'PYMODULE'),
  ('gettext',
   '/nfs/2018/m/mray/.brew/Cellar/python/3.6.4_4/Frameworks/Python.framework/Versions/3.6/lib/python3.6/gettext.py',
   'PYMODULE'),
  ('getopt',
   '/nfs/2018/m/mray/.brew/Cellar/python/3.6.4_4/Frameworks/Python.framework/Versions/3.6/lib/python3.6/getopt.py',
   'PYMODULE'),
  ('quopri',
   '/nfs/2018/m/mray/.brew/Cellar/python/3.6.4_4/Frameworks/Python.framework/Versions/3.6/lib/python3.6/quopri.py',
   'PYMODULE'),
  ('game',
   '/nfs/2018/m/mray/Documents/42/HackHighSchool/final_project/pvnp/final/game.py',
   'PYMODULE'),
  ('card',
   '/nfs/2018/m/mray/Documents/42/HackHighSchool/final_project/pvnp/final/card.py',
   'PYMODULE'),
  ('plant',
   '/nfs/2018/m/mray/Documents/42/HackHighSchool/final_project/pvnp/final/plant.py',
   'PYMODULE'),
  ('organism',
   '/nfs/2018/m/mray/Documents/42/HackHighSchool/final_project/pvnp/final/organism.py',
   'PYMODULE'),
  ('non_plant',
   '/nfs/2018/m/mray/Documents/42/HackHighSchool/final_project/pvnp/final/non_plant.py',
   'PYMODULE'),
  ('wave',
   '/nfs/2018/m/mray/Documents/42/HackHighSchool/final_project/pvnp/final/wave.py',
   'PYMODULE'),
  ('stack',
   '/nfs/2018/m/mray/Documents/42/HackHighSchool/final_project/pvnp/final/stack.py',
   'PYMODULE'),
  ('queue',
   '/nfs/2018/m/mray/Documents/42/HackHighSchool/final_project/pvnp/final/queue.py',
   'PYMODULE'),
  ('linked_list',
   '/nfs/2018/m/mray/Documents/42/HackHighSchool/final_project/pvnp/final/linked_list.py',
   'PYMODULE')])
