('/nfs/2018/m/mray/Documents/42/HackHighSchool/final_project/pvnp/final/dist/PvNP',
 True,
 False,
 False,
 None,
 None,
 False,
 False,
 None,
 True,
 'PvNP.pkg',
 [('out00-PYZ.pyz',
   '/nfs/2018/m/mray/Documents/42/HackHighSchool/final_project/pvnp/final/build/PvNP/out00-PYZ.pyz',
   'PYZ'),
  ('_struct',
   '/nfs/2018/m/mray/.brew/Cellar/python/3.6.4_4/Frameworks/Python.framework/Versions/3.6/lib/python3.6/lib-dynload/_struct.cpython-36m-darwin.so',
   'EXTENSION'),
  ('zlib',
   '/nfs/2018/m/mray/.brew/Cellar/python/3.6.4_4/Frameworks/Python.framework/Versions/3.6/lib/python3.6/lib-dynload/zlib.cpython-36m-darwin.so',
   'EXTENSION'),
  ('struct',
   '/nfs/2018/m/mray/.brew/Cellar/python/3.6.4_4/Frameworks/Python.framework/Versions/3.6/lib/python3.6/struct.pyo',
   'PYMODULE'),
  ('pyimod01_os_path',
   '/nfs/2018/m/mray/.brew/lib/python3.6/site-packages/PyInstaller-3.3.1-py3.6.egg/PyInstaller/loader/pyimod01_os_path.pyc',
   'PYMODULE'),
  ('pyimod02_archive',
   '/nfs/2018/m/mray/.brew/lib/python3.6/site-packages/PyInstaller-3.3.1-py3.6.egg/PyInstaller/loader/pyimod02_archive.pyc',
   'PYMODULE'),
  ('pyimod03_importers',
   '/nfs/2018/m/mray/.brew/lib/python3.6/site-packages/PyInstaller-3.3.1-py3.6.egg/PyInstaller/loader/pyimod03_importers.pyc',
   'PYMODULE'),
  ('pyiboot01_bootstrap',
   '/nfs/2018/m/mray/.brew/lib/python3.6/site-packages/PyInstaller-3.3.1-py3.6.egg/PyInstaller/loader/pyiboot01_bootstrap.py',
   'PYSOURCE'),
  ('PvNP',
   '/nfs/2018/m/mray/Documents/42/HackHighSchool/final_project/pvnp/final/PvNP.py',
   'PYSOURCE'),
  ('Python',
   '/nfs/2018/m/mray/.brew/Cellar/python/3.6.4_4/Frameworks/Python.framework/Versions/3.6/Python',
   'BINARY'),
  ('resource',
   '/nfs/2018/m/mray/.brew/Cellar/python/3.6.4_4/Frameworks/Python.framework/Versions/3.6/lib/python3.6/lib-dynload/resource.cpython-36m-darwin.so',
   'EXTENSION'),
  ('_pickle',
   '/nfs/2018/m/mray/.brew/Cellar/python/3.6.4_4/Frameworks/Python.framework/Versions/3.6/lib/python3.6/lib-dynload/_pickle.cpython-36m-darwin.so',
   'EXTENSION'),
  ('_datetime',
   '/nfs/2018/m/mray/.brew/Cellar/python/3.6.4_4/Frameworks/Python.framework/Versions/3.6/lib/python3.6/lib-dynload/_datetime.cpython-36m-darwin.so',
   'EXTENSION'),
  ('_posixsubprocess',
   '/nfs/2018/m/mray/.brew/Cellar/python/3.6.4_4/Frameworks/Python.framework/Versions/3.6/lib/python3.6/lib-dynload/_posixsubprocess.cpython-36m-darwin.so',
   'EXTENSION'),
  ('_ssl',
   '/nfs/2018/m/mray/.brew/Cellar/python/3.6.4_4/Frameworks/Python.framework/Versions/3.6/lib/python3.6/lib-dynload/_ssl.cpython-36m-darwin.so',
   'EXTENSION'),
  ('_heapq',
   '/nfs/2018/m/mray/.brew/Cellar/python/3.6.4_4/Frameworks/Python.framework/Versions/3.6/lib/python3.6/lib-dynload/_heapq.cpython-36m-darwin.so',
   'EXTENSION'),
  ('_codecs_hk',
   '/nfs/2018/m/mray/.brew/Cellar/python/3.6.4_4/Frameworks/Python.framework/Versions/3.6/lib/python3.6/lib-dynload/_codecs_hk.cpython-36m-darwin.so',
   'EXTENSION'),
  ('unicodedata',
   '/nfs/2018/m/mray/.brew/Cellar/python/3.6.4_4/Frameworks/Python.framework/Versions/3.6/lib/python3.6/lib-dynload/unicodedata.cpython-36m-darwin.so',
   'EXTENSION'),
  ('_codecs_tw',
   '/nfs/2018/m/mray/.brew/Cellar/python/3.6.4_4/Frameworks/Python.framework/Versions/3.6/lib/python3.6/lib-dynload/_codecs_tw.cpython-36m-darwin.so',
   'EXTENSION'),
  ('_codecs_kr',
   '/nfs/2018/m/mray/.brew/Cellar/python/3.6.4_4/Frameworks/Python.framework/Versions/3.6/lib/python3.6/lib-dynload/_codecs_kr.cpython-36m-darwin.so',
   'EXTENSION'),
  ('_codecs_jp',
   '/nfs/2018/m/mray/.brew/Cellar/python/3.6.4_4/Frameworks/Python.framework/Versions/3.6/lib/python3.6/lib-dynload/_codecs_jp.cpython-36m-darwin.so',
   'EXTENSION'),
  ('binascii',
   '/nfs/2018/m/mray/.brew/Cellar/python/3.6.4_4/Frameworks/Python.framework/Versions/3.6/lib/python3.6/lib-dynload/binascii.cpython-36m-darwin.so',
   'EXTENSION'),
  ('_opcode',
   '/nfs/2018/m/mray/.brew/Cellar/python/3.6.4_4/Frameworks/Python.framework/Versions/3.6/lib/python3.6/lib-dynload/_opcode.cpython-36m-darwin.so',
   'EXTENSION'),
  ('readline',
   '/nfs/2018/m/mray/.brew/Cellar/python/3.6.4_4/Frameworks/Python.framework/Versions/3.6/lib/python3.6/lib-dynload/readline.cpython-36m-darwin.so',
   'EXTENSION'),
  ('pyexpat',
   '/nfs/2018/m/mray/.brew/Cellar/python/3.6.4_4/Frameworks/Python.framework/Versions/3.6/lib/python3.6/lib-dynload/pyexpat.cpython-36m-darwin.so',
   'EXTENSION'),
  ('_scproxy',
   '/nfs/2018/m/mray/.brew/Cellar/python/3.6.4_4/Frameworks/Python.framework/Versions/3.6/lib/python3.6/lib-dynload/_scproxy.cpython-36m-darwin.so',
   'EXTENSION'),
  ('termios',
   '/nfs/2018/m/mray/.brew/Cellar/python/3.6.4_4/Frameworks/Python.framework/Versions/3.6/lib/python3.6/lib-dynload/termios.cpython-36m-darwin.so',
   'EXTENSION'),
  ('_sha1',
   '/nfs/2018/m/mray/.brew/Cellar/python/3.6.4_4/Frameworks/Python.framework/Versions/3.6/lib/python3.6/lib-dynload/_sha1.cpython-36m-darwin.so',
   'EXTENSION'),
  ('_md5',
   '/nfs/2018/m/mray/.brew/Cellar/python/3.6.4_4/Frameworks/Python.framework/Versions/3.6/lib/python3.6/lib-dynload/_md5.cpython-36m-darwin.so',
   'EXTENSION'),
  ('_sha256',
   '/nfs/2018/m/mray/.brew/Cellar/python/3.6.4_4/Frameworks/Python.framework/Versions/3.6/lib/python3.6/lib-dynload/_sha256.cpython-36m-darwin.so',
   'EXTENSION'),
  ('_sha512',
   '/nfs/2018/m/mray/.brew/Cellar/python/3.6.4_4/Frameworks/Python.framework/Versions/3.6/lib/python3.6/lib-dynload/_sha512.cpython-36m-darwin.so',
   'EXTENSION'),
  ('_blake2',
   '/nfs/2018/m/mray/.brew/Cellar/python/3.6.4_4/Frameworks/Python.framework/Versions/3.6/lib/python3.6/lib-dynload/_blake2.cpython-36m-darwin.so',
   'EXTENSION'),
  ('_sha3',
   '/nfs/2018/m/mray/.brew/Cellar/python/3.6.4_4/Frameworks/Python.framework/Versions/3.6/lib/python3.6/lib-dynload/_sha3.cpython-36m-darwin.so',
   'EXTENSION'),
  ('_hashlib',
   '/nfs/2018/m/mray/.brew/Cellar/python/3.6.4_4/Frameworks/Python.framework/Versions/3.6/lib/python3.6/lib-dynload/_hashlib.cpython-36m-darwin.so',
   'EXTENSION'),
  ('_bisect',
   '/nfs/2018/m/mray/.brew/Cellar/python/3.6.4_4/Frameworks/Python.framework/Versions/3.6/lib/python3.6/lib-dynload/_bisect.cpython-36m-darwin.so',
   'EXTENSION'),
  ('_random',
   '/nfs/2018/m/mray/.brew/Cellar/python/3.6.4_4/Frameworks/Python.framework/Versions/3.6/lib/python3.6/lib-dynload/_random.cpython-36m-darwin.so',
   'EXTENSION'),
  ('_bz2',
   '/nfs/2018/m/mray/.brew/Cellar/python/3.6.4_4/Frameworks/Python.framework/Versions/3.6/lib/python3.6/lib-dynload/_bz2.cpython-36m-darwin.so',
   'EXTENSION'),
  ('_lzma',
   '/nfs/2018/m/mray/.brew/Cellar/python/3.6.4_4/Frameworks/Python.framework/Versions/3.6/lib/python3.6/lib-dynload/_lzma.cpython-36m-darwin.so',
   'EXTENSION'),
  ('grp',
   '/nfs/2018/m/mray/.brew/Cellar/python/3.6.4_4/Frameworks/Python.framework/Versions/3.6/lib/python3.6/lib-dynload/grp.cpython-36m-darwin.so',
   'EXTENSION'),
  ('_socket',
   '/nfs/2018/m/mray/.brew/Cellar/python/3.6.4_4/Frameworks/Python.framework/Versions/3.6/lib/python3.6/lib-dynload/_socket.cpython-36m-darwin.so',
   'EXTENSION'),
  ('select',
   '/nfs/2018/m/mray/.brew/Cellar/python/3.6.4_4/Frameworks/Python.framework/Versions/3.6/lib/python3.6/lib-dynload/select.cpython-36m-darwin.so',
   'EXTENSION'),
  ('math',
   '/nfs/2018/m/mray/.brew/Cellar/python/3.6.4_4/Frameworks/Python.framework/Versions/3.6/lib/python3.6/lib-dynload/math.cpython-36m-darwin.so',
   'EXTENSION'),
  ('_codecs_cn',
   '/nfs/2018/m/mray/.brew/Cellar/python/3.6.4_4/Frameworks/Python.framework/Versions/3.6/lib/python3.6/lib-dynload/_codecs_cn.cpython-36m-darwin.so',
   'EXTENSION'),
  ('_codecs_iso2022',
   '/nfs/2018/m/mray/.brew/Cellar/python/3.6.4_4/Frameworks/Python.framework/Versions/3.6/lib/python3.6/lib-dynload/_codecs_iso2022.cpython-36m-darwin.so',
   'EXTENSION'),
  ('_multibytecodec',
   '/nfs/2018/m/mray/.brew/Cellar/python/3.6.4_4/Frameworks/Python.framework/Versions/3.6/lib/python3.6/lib-dynload/_multibytecodec.cpython-36m-darwin.so',
   'EXTENSION'),
  ('libssl.1.0.0.dylib',
   '/nfs/2018/m/mray/.brew/opt/openssl/lib/libssl.1.0.0.dylib',
   'BINARY'),
  ('libcrypto.1.0.0.dylib',
   '/nfs/2018/m/mray/.brew/opt/openssl/lib/libcrypto.1.0.0.dylib',
   'BINARY'),
  ('libreadline.7.dylib',
   '/nfs/2018/m/mray/.brew/opt/readline/lib/libreadline.7.dylib',
   'BINARY'),
  ('liblzma.5.dylib',
   '/nfs/2018/m/mray/.brew/opt/xz/lib/liblzma.5.dylib',
   'BINARY'),
  ('base_library.zip',
   '/nfs/2018/m/mray/Documents/42/HackHighSchool/final_project/pvnp/final/build/PvNP/base_library.zip',
   'DATA')],
 [],
 False,
 False,
 1522860607,
 [('run',
   '/nfs/2018/m/mray/.brew/lib/python3.6/site-packages/PyInstaller-3.3.1-py3.6.egg/PyInstaller/bootloader/Darwin-64bit/run',
   'EXECUTABLE')])
